mechanism,count
Class A betalactamases,465120
Aminoglycoside O-nucleotidyltransferases,115464
Class D betalactamases,84793
Class C betalactamases,83829
Tetracycline resistance ribosomal protection proteins,63824
Drug and biocide RND efflux pumps,49484
Sulfonamide-resistant dihydropteroate synthases,38553
Aminoglycoside N-acetyltransferases,37464
Dihydrofolate reductase,31954
Multi-metal resistance protein,29446
Rifampin-resistant beta-subunit of RNA polymerase RpoB,22375
Fluoroquinolone-resistant DNA topoisomerases,21091
Macrolide-resistant 23S rRNA mutation,19211
Tetracycline resistance MFS efflux pumps,17924
Quinolone resistance protein Qnr,17256
Aminoglycoside O-phosphotransferases,15132
23S rRNA methyltransferases,14808
Phenicol resistance MFS efflux pumps,14395
Drug and biocide MFS efflux pumps,13957
Multi-biocide RND efflux pump,12211
Drug and biocide and metal RND efflux pumps,12058
Aminoglycoside-resistant 16S ribosomal subunit protein,11433
EF-Tu inhibition,10937
Drug and biocide RND efflux regulator,10503
Class B betalactamases,10007
Copper resistance protein,9604
Colistin phosphoethanolamine transferase,8858
Chloramphenicol acetyltransferases,8541
Drug and biocide SMR efflux pumps,8367
Biocide and metal resistance protein,8276
Multi-metal RND efflux pumps,7586
Multi-metal ABC efflux pumps,6545
Aminocoumarin-resistant DNA topoisomerases,6437
Mercury resistance protein,6273
Acid resistance protein,6257
Mutant porin proteins,5444
Multi-metal resistance regulator,5142
Streptothricin acetyltransferase,4442
Nickel ABC efflux pumps,4000
Fosfomycin thiol transferases,3567
peroxide resistance protein,3526
Multi-biocide resistance regulator,3514
Drug and biocide and metal RND efflux regulator,3502
Copper resistance regulator,3486
Biocide and metal ABC efflux pumps,3448
Drug and biocide MATE efflux pumps,3433
VanA-type resistance protein,3155
Arsenic resistance protein,3084
Zinc resistance protein,3012
Multi-metal RND efflux regulator,2515
Zinc resistance regulator,2500
Macrolide phosphotransferases,2465
Mercury resistance regulator,2449
Penicillin binding protein,2314
Multi-drug RND efflux pumps,2314
MLS resistance MFS efflux pumps,2306
Drug and biocide MFS efflux regulator,2151
Fosfomycin target mutation,2105
VanA-type regulator,2077
Multi-biocide SMR efflux pump,2030
Sodium resistance protein,2000
Acetate resistance protein,2000
Multi-drug RND efflux regulator,1945
Lipid A modification,1875
MDR mutant porin proteins,1661
VanB-type resistance protein,1601
Multi-drug ABC efflux pumps,1560
MLS resistance ABC efflux pumps,1555
Tellurium resistance protein,1500
Peroxide resistance stress protein,1500
Nickel ABC efflux regulator,1500
Drug and biocide ABC efflux regulator,1485
Multi-biocide ABC efflux pump,1446
Daptomycin-resistant mutant,1317
Phenolic resistance protein,1306
Paraquat resistance protein,1302
Iron resistance protein,1265
VanB-type regulator,1263
Rifampin ADP-ribosyltransferase Arr,1235
Pleuromutilin-resistant 23S rRNA mutation,1193
Tetracycline-resistant 16S ribosomal subunit protein,1172
Daptomycin-resistant beta-subunit of RNA polymerase RpoB,1138
Multi-biocide MATE efflux pump,1023
Undecaprenyl pyrophosphate phosphatase,1001
Acid resistance regulator,1000
Drug and biocide and metal resistance regulator,1000
Aminoglycoside efflux pumps,959
Lincosamide nucleotidyltransferases,940
Cationic peptide-resistant 16S ribosomal subunit protein,909
Daptomycin-resistant beta-subunit of RNA polymerase RpoC,874
Fusidic acid-resistant mutation,861
MDR 23S rRNA mutation,831
VanC-type regulator,812
VanA-type accessory protein,810
Oxazolidinone-resistant 23S rRNA mutation,725
Drug and biocide ABC efflux pumps,620
Tetracycline resistance MFS efflux regulator,610
Tetracycline transcriptional repressor,557
VanD-type resistance protein,554
Pactamycin-resistant 16S ribosomal subunit protein,542
Tetracycline inactivation enzymes,542
Chromium resistance protein,538
Mupirocin-resistant isoleucyl-tRNA synthetase,534
Multi-biocide MFS efflux pump,525
Vancomycin-resistant mutation,523
Arsenic resistance regulator,512
16S rRNA methyltransferases,510
Lead P-type ATPase transporter,504
Biguanide cation efflux,500
Triclosan-resistant mutation,500
Multi-biocide resistance protein,500
Drug and metal MFS efflux pumps,471
Paraquat efflux pump,467
Gold resistance regulator,465
VanC-type resistance protein,451
VanD-type regulator,432
Bleomycin resistance protein,399
Drug and biocide SMR efflux regulator,397
Pyrazinamide-resistant mutant,391
Nickel resistance protein,366
VanB-type accessory protein,365
MDR acetyltransferase,343
Colistin-resistant mutant,318
Macrolide esterases,315
VanM-type regulator,296
Fosfomycin MFS efflux pump,267
Multi-drug MFS efflux pumps,241
Polymyxin B resistance regulator,232
VanG-type resistance protein,229
VanE-type regulator,225
Arsenic resistance membrane transporter,194
Quinolone active efflux,170
VanN-type resistance protein,148
VanD-type accessory protein,148
Penicillin binding protein regulator,137
MDR regulator,112
QAC efflux pump,109
Multi-metal MFS efflux pumps,94
Multi-metal MFS efflux regulator,89
MDR 23S ribosomal RNA methyltransferase,83
Rifampin phosphotransferase,78
Isoniazid-resistant mutant,72
Phenicol-resistant 23S rRNA mutation,71
Nickel MFS efflux pumps,64
Multi-drug MATE efflux pump,62
Nickel MFS efflux regulator,61
Ethambutol resistant arabinosyltransferase,58
Defensin-resistant mprF,45
Phenolic RND efflux pump,42
VanG-type regulator,41
Para-aminosalicylic acid resistant mutant,34
Tetracycline resistance ABC efflux pumps,33
VanL-type regulator,32
Drug and biocide and metal MFS efflux pumps,30
Aminoglycoside-resistant arabinosyltransferase,28
Streptogramin A O-acetyltransferase,25
nim nitroimidazole reductase,22
peroxide resistance regulator,20
Ethionamide-resistant mutant,17
VanF-type accessory protein,17
Lysocin-resistant mutant,15
Drug and biocide MATE efflux regulator,14
Bacitracin ABC transporter,11
Multi-drug SMR efflux regulator,9
QAC-resistant protein UDP glucose 4 epimerase,9
Aminoglycoside-resistant gidB,9
RNA-polymerase binding protein,9
VanG-type accessory protein,8
Fluoroquinolone resistance phosphotransferase,7
Cobalt transporting ATPase,6
Ethambutol-resistant mutant,6
VanE-type resistance protein,6
VanN-type regulator,6
Ribosomal zinc-binding protein,5
Fluoroquinolone ABC efflux pump,5
VanI-type resistance protein,5
VanM-type resistance protein,5
Iron resistance regulator,4
Aminocoumarin efflux pump,4
Monooxygenase,3
Spermine/spermidine acetyltransferase,2
VanO-type regulator,2
VanI-type accessory protein,2
Drug and biocide and metal SMR efflux pump,2
Arsenite oxidase regulator,1
Aluminum resistance protein,1
Cadmium resistance regulator,1
Macrolide glycosyltransferases,1
Tunicamycin resistance protein,1
Defensin-resistant mutant,1
