\begin{thebibliography}{10}

\bibitem{pmid2231712}
S.~F. Altschul, W.~Gish, W.~Miller, E.~W. Myers, and D.~J. Lipman.
\newblock {{B}asic local alignment search tool}.
\newblock {\em J. Mol. Biol.}, 215(3):403--410, Oct 1990.

\bibitem{pmid11976246}
A.~Bayat.
\newblock {{S}cience, medicine, and the future: {B}ioinformatics}.
\newblock {\em BMJ}, 324(7344):1018--1022, Apr 2002.

\bibitem{pmid30234124}
S.~Brugman, W.~Ikeda-Ohtsubo, S.~Braber, G.~Folkerts, C.~M.~J. Pieterse, and
  P.~A. H.~M. Bakker.
\newblock {{A} {C}omparative {R}eview on {M}icrobiota {M}anipulation: {L}essons
  {F}rom {F}ish, {P}lants, {L}ivestock, and {H}uman {R}esearch}.
\newblock {\em Front Nutr}, 5:80, 2018.

\bibitem{Chaturvedi2019}
Vivek Chaturvedi, Divya Mishra, Aprajita Tiwari, Snijesh V.P., Noor Shaik, and
  M.~Singh.
\newblock {\em Sequence Databases}, pages 29--46.
\newblock 03 2019.

\bibitem{pmid30289528}
I.~A. Chen, K.~Chu, K.~Palaniappan, M.~Pillay, A.~Ratner, J.~Huang,
  M.~Huntemann, N.~Varghese, J.~R. White, R.~Seshadri, T.~Smirnova, E.~Kirton,
  S.~P. Jungbluth, T.~Woyke, E.~A. Eloe-Fadrosh, N.~N. Ivanova, and N.~C.
  Kyrpides.
\newblock {{I}{M}{G}/{M} v.5.0: an integrated data management and comparative
  analysis system for microbial genomes and microbiomes}.
\newblock {\em Nucleic Acids Res.}, 47(D1):D666--D677, Jan 2019.

\bibitem{10.1093/nar/gkz1010}
Enrique Doster, Steven~M Lakin, Christopher~J Dean, Cory Wolfe, Jared~G Young,
  Christina Boucher, Keith~E Belk, Noelle~R Noyes, and Paul~S Morley.
\newblock {MEGARes 2.0: a database for classification of antimicrobial drug,
  biocide and metal resistance determinants in metagenomic sequence data}.
\newblock {\em Nucleic Acids Research}, 48(D1):D561--D569, 11 2019.

\bibitem{pmid30718869}
S.~C. Forster, N.~Kumar, B.~O. Anonye, A.~Almeida, E.~Viciani, M.~D. Stares,
  M.~Dunn, T.~T. Mkandawire, A.~Zhu, Y.~Shao, L.~J. Pike, T.~Louie, H.~P.
  Browne, A.~L. Mitchell, B.~A. Neville, R.~D. Finn, and T.~D. Lawley.
\newblock {{A} human gut bacterial genome and culture collection for improved
  metagenomic analyses}.
\newblock {\em Nat. Biotechnol.}, 37(2):186--192, 02 2019.

\bibitem{quince2017shotgun}
Christopher Quince, Alan~W Walker, Jared~T Simpson, Nicholas~J Loman, and
  Nicola Segata.
\newblock Shotgun metagenomics, from sampling to analysis.
\newblock {\em Nature biotechnology}, 35(9):833, 2017.

\bibitem{R2020}
{R Core Team}.
\newblock {\em R: A Language and Environment for Statistical Computing}.
\newblock R Foundation for Statistical Computing, Vienna, Austria, 2020.

\bibitem{pmid26000844}
J.~A. Reuter, D.~V. Spacek, and M.~P. Snyder.
\newblock {{H}igh-throughput sequencing technologies}.
\newblock {\em Mol. Cell}, 58(4):586--597, May 2015.

\bibitem{pmid30298054}
I.~Sultan, S.~Rahman, A.~T. Jan, M.~T. Siddiqui, A.~H. Mondal, and Q.~M.~R.
  Haq.
\newblock {{A}ntibiotics, {R}esistome and {R}esistance {M}echanisms: {A}
  {B}acterial {P}erspective}.
\newblock {\em Front Microbiol}, 9:2066, 2018.

\bibitem{pmid17360275}
G.~Yim, H.~H. Wang, and J.~Davies.
\newblock {{A}ntibiotics as signalling molecules}.
\newblock {\em Philos. Trans. R. Soc. Lond., B, Biol. Sci.},
  362(1483):1195--1200, Jul 2007.

\end{thebibliography}
