\relax 
\providecommand\hyper@newdestlabel[2]{}
\providecommand\zref@newlabel[2]{}
\providecommand*\new@tpo@label[2]{}
\providecommand\HyperFirstAtBeginDocument{\AtBeginDocument}
\HyperFirstAtBeginDocument{\ifx\hyper@anchor\@undefined
\global\let\oldcontentsline\contentsline
\gdef\contentsline#1#2#3#4{\oldcontentsline{#1}{#2}{#3}}
\global\let\oldnewlabel\newlabel
\gdef\newlabel#1#2{\newlabelxx{#1}#2}
\gdef\newlabelxx#1#2#3#4#5#6{\oldnewlabel{#1}{{#2}{#3}}}
\AtEndDocument{\ifx\hyper@anchor\@undefined
\let\contentsline\oldcontentsline
\let\newlabel\oldnewlabel
\fi}
\fi}
\global\let\hyper@last\relax 
\gdef\HyperFirstAtBeginDocument#1{#1}
\providecommand\HyField@AuxAddToFields[1]{}
\providecommand\HyField@AuxAddToCoFields[2]{}
\providecommand\BKM@entry[2]{}
\providecommand\babel@aux[2]{}
\@nameuse{bbl@beforestart}
\babel@aux{english}{}
\BKM@entry{id=1,dest={73656374696F6E2E31},srcline={437}}{5C3337365C3337375C303030495C3030306E5C303030745C303030725C3030306F5C303030645C303030755C303030635C303030745C303030695C3030306F5C3030306E}
\BKM@entry{id=2,dest={73756273656374696F6E2E312E31},srcline={440}}{5C3337365C3337375C303030415C3030306E5C303030745C303030695C303030625C303030695C3030306F5C303030745C303030695C303030635C30303073}
\citation{pmid17360275}
\BKM@entry{id=3,dest={73756273656374696F6E2E312E32},srcline={449}}{5C3337365C3337375C303030415C3030306E5C303030745C303030695C303030625C303030695C3030306F5C303030745C303030695C303030635C3030305C3034305C303030525C303030655C303030735C303030695C303030735C303030745C303030615C3030306E5C303030635C30303065}
\BKM@entry{id=4,dest={73756273656374696F6E2E312E33},srcline={464}}{5C3337365C3337375C303030525C303030655C303030735C303030695C303030735C303030745C303030615C3030306E5C303030635C303030655C3030305C3034305C303030445C303030655C303030745C303030655C303030635C303030745C303030695C3030306F5C3030306E}
\citation{pmid30298054}
\@writefile{toc}{\contentsline {section}{\numberline {1}Introduction}{3}{section.1}\protected@file@percent }
\newlabel{introduction}{{1}{3}{Introduction}{section.1}{}}
\@writefile{toc}{\contentsline {subsection}{\numberline {1.1}Antibiotics}{3}{subsection.1.1}\protected@file@percent }
\newlabel{antibiotics}{{1.1}{3}{Antibiotics}{subsection.1.1}{}}
\newlabel{bhfn:1}{{1}{3}{Antibiotics}{BackrefHyperFootnoteCounter.1}{}}
\@writefile{toc}{\contentsline {subsection}{\numberline {1.2}Antibiotic Resistance}{3}{subsection.1.2}\protected@file@percent }
\newlabel{antibiotic-resistance}{{1.2}{3}{Antibiotic Resistance}{subsection.1.2}{}}
\citation{pmid11976246}
\citation{Chaturvedi2019}
\citation{10.1093/nar/gkz1010}
\citation{pmid30289528}
\citation{pmid26000844}
\citation{quince2017shotgun}
\BKM@entry{id=5,dest={73756273656374696F6E2E312E34},srcline={479}}{5C3337365C3337375C303030545C303030685C303030655C3030305C3034305C303030485C303030755C3030306D5C303030615C3030306E5C3030305C3034305C303030475C303030755C303030745C3030305C3034305C3030304D5C303030695C303030635C303030725C3030306F5C303030625C303030695C3030306F5C303030745C30303061}
\citation{pmid30234124}
\BKM@entry{id=6,dest={73756273656374696F6E2E312E35},srcline={492}}{5C3337365C3337375C303030485C303030795C303030705C3030306F5C303030745C303030685C303030655C303030735C303030695C30303073}
\@writefile{toc}{\contentsline {subsection}{\numberline {1.3}Resistance Detection}{4}{subsection.1.3}\protected@file@percent }
\newlabel{resistance-detection}{{1.3}{4}{Resistance Detection}{subsection.1.3}{}}
\@writefile{toc}{\contentsline {subsection}{\numberline {1.4}The Human Gut Microbiota}{4}{subsection.1.4}\protected@file@percent }
\newlabel{the-human-gut-microbiota}{{1.4}{4}{The Human Gut Microbiota}{subsection.1.4}{}}
\citation{pmid30718869}
\BKM@entry{id=7,dest={73756273656374696F6E2E312E36},srcline={504}}{5C3337365C3337375C3030304D5C303030655C303030745C303030685C3030306F5C303030645C303030735C3030305C3034305C303030535C303030755C3030306D5C3030306D5C303030615C303030725C30303079}
\citation{pmid30718869}
\citation{10.1093/nar/gkz1010}
\BKM@entry{id=8,dest={73656374696F6E2E32},srcline={516}}{5C3337365C3337375C3030304D5C303030655C303030745C303030685C3030306F5C303030645C30303073}
\BKM@entry{id=9,dest={73756273656374696F6E2E322E31},srcline={519}}{5C3337365C3337375C303030445C303030615C303030745C303030615C303030625C303030615C303030735C303030655C30303073}
\@writefile{toc}{\contentsline {subsection}{\numberline {1.5}Hypothesis}{5}{subsection.1.5}\protected@file@percent }
\newlabel{hypothesis}{{1.5}{5}{Hypothesis}{subsection.1.5}{}}
\@writefile{toc}{\contentsline {subsection}{\numberline {1.6}Methods Summary}{5}{subsection.1.6}\protected@file@percent }
\newlabel{methods-summary}{{1.6}{5}{Methods Summary}{subsection.1.6}{}}
\BKM@entry{id=10,dest={73756273756273656374696F6E2E322E312E31},srcline={526}}{5C3337365C3337375C303030555C3030306E5C303030695C303030665C303030695C303030655C303030645C3030305C3034305C303030485C303030755C3030306D5C303030615C3030306E5C3030305C3034305C303030475C303030615C303030735C303030745C303030725C3030306F5C303030695C3030306E5C303030745C303030655C303030735C303030745C303030695C3030306E5C303030615C3030306C5C3030305C3034305C303030475C303030655C3030306E5C3030306F5C3030306D5C303030655C3030305C3034305C3030305C3035305C303030555C303030485C303030475C303030475C3030305C303531}
\@writefile{toc}{\contentsline {section}{\numberline {2}Methods}{6}{section.2}\protected@file@percent }
\newlabel{methods}{{2}{6}{Methods}{section.2}{}}
\@writefile{toc}{\contentsline {subsection}{\numberline {2.1}Databases}{6}{subsection.2.1}\protected@file@percent }
\newlabel{databases}{{2.1}{6}{Databases}{subsection.2.1}{}}
\@writefile{toc}{\contentsline {subsubsection}{\numberline {2.1.1}Unified Human Gastrointestinal Genome (UHGG)}{6}{subsubsection.2.1.1}\protected@file@percent }
\newlabel{unified-human-gastrointestinal-genome-uhgg}{{2.1.1}{6}{Unified Human Gastrointestinal Genome (UHGG)}{subsubsection.2.1.1}{}}
\newlabel{bhfn:2}{{2}{6}{Unified Human Gastrointestinal Genome (UHGG)}{BackrefHyperFootnoteCounter.2}{}}
\newlabel{bhfn:3}{{3}{6}{Unified Human Gastrointestinal Genome (UHGG)}{BackrefHyperFootnoteCounter.3}{}}
\newlabel{record-example-of-genomes_metadata.tsv}{{3}{6}{\texorpdfstring {Record example of \texttt {genomes\_metadata.tsv}}{Record example of genomes\_metadata.tsv}}{paragraph*.3}{}}
\@writefile{toc}{\contentsline {paragraph}{\nonumberline Record example of \texttt  {genomes\_metadata.tsv}}{6}{paragraph*.3}\protected@file@percent }
\gdef \LT@i {\LT@entry 
    {2}{86.70985pt}\LT@entry 
    {3}{334.56937pt}}
\BKM@entry{id=11,dest={73756273756273656374696F6E2E322E312E32},srcline={574}}{5C3337365C3337375C3030304D5C303030455C303030475C303030415C303030525C303030655C303030735C3030303A5C3030305C3034305C303030415C3030306E5C3030305C3034305C303030415C3030306E5C303030745C303030695C3030306D5C303030695C303030635C303030725C3030306F5C303030625C303030695C303030615C3030306C5C3030305C3034305C303030445C303030615C303030745C303030615C303030625C303030615C303030735C303030655C3030305C3034305C303030665C3030306F5C303030725C3030305C3034305C303030485C303030695C303030675C303030685C3030302D5C303030545C303030685C303030725C3030306F5C303030755C303030675C303030685C303030705C303030755C303030745C3030305C3034305C303030535C303030655C303030715C303030755C303030655C3030306E5C303030635C303030695C3030306E5C30303067}
\citation{10.1093/nar/gkz1010}
\gdef \LT@ii {\LT@entry 
    {2}{54.70992pt}\LT@entry 
    {2}{322.33914pt}}
\@writefile{toc}{\contentsline {subsubsection}{\numberline {2.1.2}MEGARes: An Antimicrobial Database for High-Throughput Sequencing}{7}{subsubsection.2.1.2}\protected@file@percent }
\newlabel{megares-an-antimicrobial-database-for-high-throughput-sequencing}{{2.1.2}{7}{MEGARes: An Antimicrobial Database for High-Throughput Sequencing}{subsubsection.2.1.2}{}}
\newlabel{record-example-of-megares_modified_annotations_v2.00.csv}{{2.1.2}{7}{\texorpdfstring {Record example of \texttt {megares\_modified\_annotations\_v2.00.csv}}{Record example of megares\_modified\_annotations\_v2.00.csv}}{paragraph*.5}{}}
\@writefile{toc}{\contentsline {paragraph}{\nonumberline Record example of \texttt  {megares\_modified\_annotations\_v2.00.csv}}{7}{paragraph*.5}\protected@file@percent }
\BKM@entry{id=12,dest={73756273656374696F6E2E322E32},srcline={624}}{5C3337365C3337375C303030505C303030725C303030655C303030705C303030615C303030725C303030695C3030306E5C303030675C3030305C3034305C303030745C303030685C303030655C3030305C3034305C303030445C303030615C303030745C303030615C3030305C3034305C303030665C303030725C3030306F5C3030306D5C3030305C3034305C303030745C303030685C303030655C3030305C3034305C303030555C3030306E5C303030695C303030665C303030695C303030655C303030645C3030305C3034305C303030485C303030755C3030306D5C303030615C3030306E5C3030305C3034305C303030475C303030615C303030735C303030745C303030725C3030306F5C303030695C3030306E5C303030745C303030655C303030735C303030745C303030695C3030306E5C303030615C3030306C5C3030305C3034305C303030475C303030655C3030306E5C3030306F5C3030306D5C303030655C3030305C3034305C303030445C303030615C303030745C303030615C303030625C303030615C303030735C30303065}
\@writefile{toc}{\contentsline {subsection}{\numberline {2.2}Preparing the Data from the Unified Human Gastrointestinal Genome Database}{8}{subsection.2.2}\protected@file@percent }
\newlabel{preparing-the-data-from-the-unified-human-gastrointestinal-genome-database}{{2.2}{8}{Preparing the Data from the Unified Human Gastrointestinal Genome Database}{subsection.2.2}{}}
\newlabel{bhfn:4}{{4}{8}{Preparing the Data from the Unified Human Gastrointestinal Genome Database}{BackrefHyperFootnoteCounter.4}{}}
\BKM@entry{id=13,dest={73756273656374696F6E2E322E33},srcline={695}}{5C3337365C3337375C303030425C3030304C5C303030415C303030535C303030545C3030303A5C3030305C3034305C303030425C303030615C303030735C303030695C303030635C3030305C3034305C3030304C5C3030306F5C303030635C303030615C3030306C5C3030305C3034305C303030415C3030306C5C303030695C303030675C3030306E5C3030306D5C303030655C3030306E5C303030745C3030305C3034305C303030535C303030655C303030615C303030725C303030635C303030685C3030305C3034305C303030545C3030306F5C3030306F5C3030306C}
\citation{pmid2231712}
\newlabel{bhfn:5}{{5}{9}{Preparing the Data from the Unified Human Gastrointestinal Genome Database}{BackrefHyperFootnoteCounter.5}{}}
\@writefile{toc}{\contentsline {subsection}{\numberline {2.3}BLAST: Basic Local Alignment Search Tool}{9}{subsection.2.3}\protected@file@percent }
\newlabel{blast-basic-local-alignment-search-tool}{{2.3}{9}{BLAST: Basic Local Alignment Search Tool}{subsection.2.3}{}}
\gdef \LT@iii {\LT@entry 
    {2}{47.38992pt}\LT@entry 
    {2}{343.04933pt}}
\newlabel{bhfn:6}{{6}{10}{BLAST: Basic Local Alignment Search Tool}{BackrefHyperFootnoteCounter.6}{}}
\newlabel{record-example-of-blast_out.tsv}{{6}{10}{\texorpdfstring {Record example of \texttt {blast\_out.tsv}}{Record example of blast\_out.tsv}}{paragraph*.7}{}}
\@writefile{toc}{\contentsline {paragraph}{\nonumberline Record example of \texttt  {blast\_out.tsv}}{10}{paragraph*.7}\protected@file@percent }
\BKM@entry{id=14,dest={73756273656374696F6E2E322E34},srcline={767}}{5C3337365C3337375C3030304A5C3030306F5C303030695C3030306E5C3030303A5C3030305C3034305C3030304D5C303030655C303030725C303030675C303030655C3030305C3034305C3030306F5C303030755C303030725C3030305C3034305C303030445C303030615C303030745C303030615C3030305C3034305C303030545C3030306F5C303030675C303030655C303030745C303030685C303030655C30303072}
\gdef \LT@iv {\LT@entry 
    {2}{47.38992pt}\LT@entry 
    {2}{343.04933pt}}
\@writefile{toc}{\contentsline {subsection}{\numberline {2.4}Join: Merge our Data Together}{11}{subsection.2.4}\protected@file@percent }
\newlabel{join-merge-our-data-together}{{2.4}{11}{Join: Merge our Data Together}{subsection.2.4}{}}
\newlabel{record-example-of-blast_out_wgenome.tsv}{{2.4}{11}{\texorpdfstring {Record example of \texttt {blast\_out\_wGenome.tsv}}{Record example of blast\_out\_wGenome.tsv}}{paragraph*.9}{}}
\@writefile{toc}{\contentsline {paragraph}{\nonumberline Record example of \texttt  {blast\_out\_wGenome.tsv}}{11}{paragraph*.9}\protected@file@percent }
\gdef \LT@v {\LT@entry 
    {2}{56.55989pt}\LT@entry 
    {2}{397.13913pt}}
\newlabel{bhfn:7}{{7}{12}{\texorpdfstring {Record example of \texttt {blast\_out\_wGenome.tsv}}{Record example of blast\_out\_wGenome.tsv}}{BackrefHyperFootnoteCounter.7}{}}
\newlabel{record-example-of-join_out.csv}{{7}{12}{\texorpdfstring {Record example of \texttt {join\_out.csv}}{Record example of join\_out.csv}}{paragraph*.11}{}}
\@writefile{toc}{\contentsline {paragraph}{\nonumberline Record example of \texttt  {join\_out.csv}}{12}{paragraph*.11}\protected@file@percent }
\newlabel{record-example-of-join_out_wphylum.csv}{{7}{12}{\texorpdfstring {Record example of \texttt {join\_out\_wPhylum.csv}}{Record example of join\_out\_wPhylum.csv}}{paragraph*.13}{}}
\@writefile{toc}{\contentsline {paragraph}{\nonumberline Record example of \texttt  {join\_out\_wPhylum.csv}}{12}{paragraph*.13}\protected@file@percent }
\gdef \LT@vi {\LT@entry 
    {2}{56.55989pt}\LT@entry 
    {2}{397.13913pt}}
\BKM@entry{id=15,dest={73756273656374696F6E2E322E35},srcline={883}}{5C3337365C3337375C303030465C303030695C3030306E5C303030645C303030695C3030306E5C303030675C3030305C3034305C303030745C303030685C303030655C3030305C3034305C303030465C303030725C303030615C303030635C303030745C303030695C3030306F5C3030306E5C3030305C3034305C3030306F5C303030665C3030305C3034305C303030525C303030655C303030735C303030695C303030735C303030745C303030615C3030306E5C303030745C3030305C3034305C303030535C303030705C303030655C303030635C303030695C303030655C303030735C3030305C3034305C303030695C3030306E5C3030305C3034305C303030655C303030615C303030635C303030685C3030305C3034305C303030505C303030685C303030795C3030306C5C303030755C3030306D}
\@writefile{toc}{\contentsline {subsection}{\numberline {2.5}Finding the Fraction of Resistant Species in each Phylum}{13}{subsection.2.5}\protected@file@percent }
\newlabel{finding-the-fraction-of-resistant-species-in-each-phylum}{{2.5}{13}{Finding the Fraction of Resistant Species in each Phylum}{subsection.2.5}{}}
\newlabel{record-example-of-isolates_wphylum.tsv}{{2.5}{13}{\texorpdfstring {Record example of \texttt {isolates\_wPhylum.tsv}}{Record example of isolates\_wPhylum.tsv}}{paragraph*.15}{}}
\@writefile{toc}{\contentsline {paragraph}{\nonumberline Record example of \texttt  {isolates\_wPhylum.tsv}}{13}{paragraph*.15}\protected@file@percent }
\gdef \LT@vii {\LT@entry 
    {2}{86.70985pt}\LT@entry 
    {3}{351.40945pt}}
\gdef \LT@viii {\LT@entry 
    {2}{50.0599pt}\LT@entry 
    {2}{136.14977pt}\LT@entry 
    {2}{112.8697pt}}
\BKM@entry{id=16,dest={73756273656374696F6E2E322E36},srcline={1010}}{5C3337365C3337375C303030445C303030695C303030735C303030705C3030306C5C303030615C303030795C303030695C3030306E5C303030675C3030305C3034305C303030745C303030685C303030655C3030305C3034305C303030525C303030655C303030735C303030755C3030306C5C303030745C303030735C3030305C3034305C303030695C3030306E5C3030305C3034305C303030615C3030305C3034305C303030485C303030655C303030615C303030745C3030306D5C303030615C303030705C3030305C3034305C303030755C303030735C303030695C3030306E5C303030675C3030305C3034305C30303052}
\citation{R2020}
\newlabel{record-examples-of-arg_counts.csv}{{2.5}{15}{\texorpdfstring {Record examples of \texttt {arg\_counts.csv}}{Record examples of arg\_counts.csv}}{paragraph*.17}{}}
\@writefile{toc}{\contentsline {paragraph}{\nonumberline Record examples of \texttt  {arg\_counts.csv}}{15}{paragraph*.17}\protected@file@percent }
\BKM@entry{id=17,dest={73656374696F6E2E33},srcline={1025}}{5C3337365C3337375C303030525C303030655C303030735C303030755C3030306C5C303030745C303030735C3030305C3034305C303030615C3030306E5C303030645C3030305C3034305C303030445C303030695C303030735C303030635C303030755C303030735C303030735C303030695C3030306F5C3030306E}
\BKM@entry{id=18,dest={73756273656374696F6E2E332E31},srcline={1028}}{5C3337365C3337375C303030545C303030685C303030655C3030305C3034305C303030415C303030625C303030755C3030306E5C303030645C303030615C3030306E5C303030635C303030655C3030305C3034305C3030306F5C303030665C3030305C3034305C303030415C3030306E5C303030745C303030695C303030625C303030695C3030306F5C303030745C303030695C303030635C3030305C3034305C303030525C303030655C303030735C303030695C303030735C303030745C303030615C3030306E5C303030635C303030655C30303073}
\BKM@entry{id=19,dest={73756273656374696F6E2E332E32},srcline={1038}}{5C3337365C3337375C303030505C303030725C3030306F5C303030705C3030306F5C303030725C303030745C303030695C3030306F5C3030306E5C3030305C3034305C3030306F5C303030665C3030305C3034305C303030535C303030705C303030655C303030635C303030695C303030655C303030735C3030305C3034305C303030525C303030655C303030735C303030695C303030735C303030745C303030615C3030306E5C303030745C3030305C3034305C303030745C3030306F5C3030305C3034305C303030615C3030305C3034305C303030435C3030306C5C303030615C303030735C303030735C3030305C3034305C3030306F5C303030665C3030305C3034305C303030415C3030306E5C303030745C303030695C303030625C303030695C3030306F5C303030745C303030695C303030635C30303073}
\@writefile{toc}{\contentsline {subsection}{\numberline {2.6}Displaying the Results in a Heatmap using R}{16}{subsection.2.6}\protected@file@percent }
\newlabel{displaying-the-results-in-a-heatmap-using-r}{{2.6}{16}{Displaying the Results in a Heatmap using R}{subsection.2.6}{}}
\@writefile{toc}{\contentsline {section}{\numberline {3}Results and Discussion}{16}{section.3}\protected@file@percent }
\newlabel{results-discussion}{{3}{16}{Results and Discussion}{section.3}{}}
\@writefile{toc}{\contentsline {subsection}{\numberline {3.1}The Abundance of Antibiotic Resistances}{16}{subsection.3.1}\protected@file@percent }
\newlabel{the-abundance-of-antibiotic-resistances}{{3.1}{16}{The Abundance of Antibiotic Resistances}{subsection.3.1}{}}
\@writefile{toc}{\contentsline {subsection}{\numberline {3.2}Proportion of Species Resistant to a Class of Antibiotics}{17}{subsection.3.2}\protected@file@percent }
\newlabel{proportion-of-species-resistant-to-a-class-of-antibiotics}{{3.2}{17}{Proportion of Species Resistant to a Class of Antibiotics}{subsection.3.2}{}}
\@writefile{lof}{\contentsline {figure}{\numberline {1}{\ignorespaces Output of heatmap3.r. The different phyla that were present in the dataset, together with the name of the antimicrobial classes that were successfully matched, are respectively listed in the horizontal and vertical axes. We read in each cell the proportion of species from the corresponding phylum which are likely to be resistant to the corresponding antibiotic class. Each of these values are included in the range 0 to 1 and are colour-coded according to the scale displayed on the top-left corner of the graphic. The \lstinline !.pdf! and \lstinline !.png! versions of this figure can be found in our GitLab repository.\relax }}{17}{figure.caption.18}\protected@file@percent }
\providecommand*\caption@xref[2]{\@setref\relax\@undefined{#1}}
\newlabel{fig:heatmap}{{1}{17}{Output of heatmap3.r. The different phyla that were present in the dataset, together with the name of the antimicrobial classes that were successfully matched, are respectively listed in the horizontal and vertical axes. We read in each cell the proportion of species from the corresponding phylum which are likely to be resistant to the corresponding antibiotic class. Each of these values are included in the range 0 to 1 and are colour-coded according to the scale displayed on the top-left corner of the graphic. The \passthrough {\lstinline !.pdf!} and \passthrough {\lstinline !.png!} versions of this figure can be found in our GitLab repository.\relax }{figure.caption.18}{}}
\BKM@entry{id=20,dest={73756273656374696F6E2E332E33},srcline={1065}}{5C3337365C3337375C303030545C303030685C303030655C3030305C3034305C303030445C303030695C303030735C303030745C303030725C303030695C303030625C303030755C303030745C303030695C3030306F5C3030306E5C3030305C3034305C3030306F5C303030665C3030305C3034305C303030415C3030306E5C303030745C303030695C303030625C303030695C3030306F5C303030745C303030695C303030635C3030305C3034305C303030525C303030655C303030735C303030695C303030735C303030745C303030615C3030306E5C303030635C303030655C30303073}
\@writefile{lof}{\contentsline {figure}{\numberline {2}{\ignorespaces An alternative version of the heatmap displaying antibiotics only. All other antimicrobials, such as metals or biocides, are excluded.\relax }}{18}{figure.caption.19}\protected@file@percent }
\newlabel{fig:drugs}{{2}{18}{An alternative version of the heatmap displaying antibiotics only. All other antimicrobials, such as metals or biocides, are excluded.\relax }{figure.caption.19}{}}
\@writefile{toc}{\contentsline {subsection}{\numberline {3.3}The Distribution of Antibiotic Resistances}{19}{subsection.3.3}\protected@file@percent }
\newlabel{the-distribution-of-antibiotic-resistances}{{3.3}{19}{The Distribution of Antibiotic Resistances}{subsection.3.3}{}}
\newlabel{bhfn:8}{{8}{19}{The Distribution of Antibiotic Resistances}{BackrefHyperFootnoteCounter.8}{}}
\BKM@entry{id=21,dest={73756273656374696F6E2E332E34},srcline={1098}}{5C3337365C3337375C303030545C303030685C303030655C3030305C3034305C303030535C303030705C303030655C303030635C303030695C303030615C3030306C5C3030305C3034305C303030435C303030615C303030735C303030655C3030305C3034305C3030306F5C303030665C3030305C3034305C303030745C303030685C303030655C3030305C3034305C303030415C303030725C303030635C303030685C303030615C303030655C30303061}
\BKM@entry{id=22,dest={73756273656374696F6E2E332E35},srcline={1109}}{5C3337365C3337375C303030545C303030725C303030755C303030735C303030745C303030695C3030306E5C303030675C3030305C3034305C303030745C303030685C303030655C3030305C3034305C303030525C303030655C303030735C303030755C3030306C5C303030745C30303073}
\citation{pmid30718869}
\citation{10.1093/nar/gkz1010}
\@writefile{toc}{\contentsline {subsection}{\numberline {3.4}The Special Case of the Archaea}{20}{subsection.3.4}\protected@file@percent }
\newlabel{the-special-case-of-the-archaea}{{3.4}{20}{The Special Case of the Archaea}{subsection.3.4}{}}
\@writefile{toc}{\contentsline {subsection}{\numberline {3.5}Trusting the Results}{20}{subsection.3.5}\protected@file@percent }
\newlabel{trusting-the-results}{{3.5}{20}{Trusting the Results}{subsection.3.5}{}}
\BKM@entry{id=23,dest={73756273656374696F6E2E332E36},srcline={1135}}{5C3337365C3337375C303030435C303030725C303030695C303030745C303030695C303030635C303030695C303030735C3030306D5C3030305C3034305C3030306F5C303030665C3030305C3034305C303030745C303030685C303030655C3030305C3034305C303030525C303030655C303030735C303030755C3030306C5C303030745C30303073}
\@writefile{toc}{\contentsline {subsection}{\numberline {3.6}Criticism of the Results}{21}{subsection.3.6}\protected@file@percent }
\newlabel{criticism-of-the-results}{{3.6}{21}{Criticism of the Results}{subsection.3.6}{}}
\BKM@entry{id=24,dest={73756273656374696F6E2E332E37},srcline={1178}}{5C3337365C3337375C303030525C303030655C303030705C303030725C3030306F5C303030645C303030755C303030635C303030695C303030625C303030695C3030306C5C303030695C303030745C30303079}
\BKM@entry{id=25,dest={73656374696F6E2E34},srcline={1194}}{5C3337365C3337375C303030435C3030306F5C3030306E5C303030635C3030306C5C303030755C303030735C303030695C3030306F5C3030306E}
\@writefile{toc}{\contentsline {subsection}{\numberline {3.7}Reproducibility}{22}{subsection.3.7}\protected@file@percent }
\newlabel{reproducibility}{{3.7}{22}{Reproducibility}{subsection.3.7}{}}
\BKM@entry{id=26,dest={73656374696F6E2E35},srcline={1206}}{5C3337365C3337375C303030415C303030635C3030306B5C3030306E5C3030306F5C303030775C3030306C5C303030655C303030645C303030675C303030655C3030306D5C303030655C3030306E5C303030745C30303073}
\bibstyle{plain}
\bibdata{refs}
\BKM@entry{id=27,dest={73656374696F6E2E36},srcline={1}}{5C3337365C3337375C303030525C303030655C303030665C303030655C303030725C303030655C3030306E5C303030635C303030655C30303073}
\bibcite{pmid2231712}{1}
\bibcite{pmid11976246}{2}
\@writefile{toc}{\contentsline {section}{\numberline {4}Conclusion}{23}{section.4}\protected@file@percent }
\newlabel{conclusion}{{4}{23}{Conclusion}{section.4}{}}
\@writefile{toc}{\contentsline {section}{\numberline {5}Acknowledgements}{23}{section.5}\protected@file@percent }
\newlabel{acknowledgements}{{5}{23}{Acknowledgements}{section.5}{}}
\@writefile{toc}{\contentsline {section}{\numberline {6}References}{23}{section.6}\protected@file@percent }
\bibcite{pmid30234124}{3}
\bibcite{Chaturvedi2019}{4}
\bibcite{pmid30289528}{5}
\bibcite{10.1093/nar/gkz1010}{6}
\bibcite{pmid30718869}{7}
\bibcite{quince2017shotgun}{8}
\bibcite{R2020}{9}
\bibcite{pmid26000844}{10}
\bibcite{pmid30298054}{11}
\bibcite{pmid17360275}{12}
\BKM@entry{id=28,dest={617070656E6469782E41},srcline={1229}}{5C3337365C3337375C3030304E5C303030755C3030306D5C303030625C303030655C303030725C3030305C3034305C3030306F5C303030665C3030305C3034305C303030475C303030655C3030306E5C3030306F5C3030306D5C303030655C303030735C3030305C3034305C303030665C303030725C3030306F5C3030306D5C3030305C3034305C303030455C303030615C303030635C303030685C3030305C3034305C303030505C303030685C303030795C3030306C5C303030755C3030306D}
\gdef \LT@ix {\LT@entry 
    {2}{86.18987pt}\LT@entry 
    {1}{31.32994pt}}
\BKM@entry{id=29,dest={617070656E6469782E42},srcline={1256}}{5C3337365C3337375C303030455C3030302D5C303030565C303030615C3030306C5C303030755C303030655C303030735C3030305C3034305C303030415C3030306E5C303030615C3030306C5C303030795C303030735C303030695C30303073}
\@writefile{toc}{\contentsline {section}{\numberline {A}Number of Genomes from Each Phylum}{}{appendix.A}\protected@file@percent }
\newlabel{number-of-genomes-from-each-phylum}{{A}{}{Number of Genomes from Each Phylum}{appendix.A}{}}
\@writefile{toc}{\contentsline {section}{\numberline {B}E-Values Analysis}{}{appendix.B}\protected@file@percent }
\newlabel{e-values-analysis}{{B}{}{E-Values Analysis}{appendix.B}{}}
\BKM@entry{id=30,dest={617070656E6469782E43},srcline={1286}}{5C3337365C3337375C303030415C3030305C3034305C303030535C303030745C303030615C303030725C303030745C303030695C3030306E5C303030675C3030305C3034305C303030505C3030306F5C303030695C3030306E5C303030745C3030305C3034305C303030665C3030306F5C303030725C3030305C3034305C3030304D5C303030655C303030635C303030685C303030615C3030306E5C303030695C303030735C3030306D5C303030735C3030305C3034305C303030415C3030306E5C303030615C3030306C5C303030795C303030735C303030695C30303073}
\gdef \LT@x {\LT@entry 
    {2}{54.70992pt}\LT@entry 
    {2}{239.49939pt}}
\@writefile{toc}{\contentsline {section}{\numberline {C}A Starting Point for Mechanisms Analysis}{}{appendix.C}\protected@file@percent }
\newlabel{a-starting-point-for-mechanisms-analysis}{{C}{}{A Starting Point for Mechanisms Analysis}{appendix.C}{}}
\gdef \LT@xi {\LT@entry 
    {2}{227.00941pt}\LT@entry 
    {2}{35.81992pt}}
\BKM@entry{id=31,dest={617070656E6469782E44},srcline={1354}}{5C3337365C3337375C303030545C303030655C303030735C303030745C303030695C3030306E5C303030675C3030305C3034305C3030306F5C303030755C303030725C3030305C3034305C303030505C303030725C3030306F5C303030675C303030725C303030615C3030306D5C30303073}
\@writefile{toc}{\contentsline {section}{\numberline {D}Testing our Programs}{}{appendix.D}\protected@file@percent }
\newlabel{testing-our-programs}{{D}{}{Testing our Programs}{appendix.D}{}}
\global\csname @altsecnumformattrue\endcsname
\global\@namedef{scr@dte@section@lastmaxnumwidth}{14.71672pt}
\global\@namedef{scr@dte@subsection@lastmaxnumwidth}{20.73918pt}
\global\@namedef{scr@dte@subsubsection@lastmaxnumwidth}{28.91881pt}
\@writefile{toc}{\providecommand\tocbasic@end@toc@file{}\tocbasic@end@toc@file}
\gdef \@abspage@last{30}
